{
  "type": "service_account",
  "project_id": "toolbox-97035",
  "private_key_id": "d775711de600b48f8066e8088c5cb5a2955a147c",
  "private_key": "-----BEGIN PRIVATE KEY-----\nMIIEvgIBADANBgkqhkiG9w0BAQEFAASCBKgwggSkAgEAAoIBAQCIuctd9yPVqeN3\nzKsVtKmFoEYpN9V1p1eZkj6JfTfBvBqsk6G698Jo8Mi4PAM9zNNbQYosxyMkiISA\nYb5KhCv1YXRuXUXs6VrSvrc1J2LGar3sVcxSN0jZImMwWU84Qm334spMeFL0cP1F\nV9apdk7l5eIylOw4xYTrILiA/WE/zHJBMooNuzrG/AP4s4Sx6DfXhRRlANoSuteh\no0II5h2IDXQjHjFu2u63p8so0P2MJt7JU8apbFvmf6IS2EUp26kmtTQGJ3X5IkGg\nmulhL0ccRuwYY5XdvfPej9G1IZGXct6HBeH7Z583n1NnuLs87f6q5oweOVZVqi9Y\ncBSh7Y9pAgMBAAECggEAHdEGvJMsyWenJ3UGylD/txhgtJRshJ/dxqvR34HjKuiu\nmHwJhRCK4P/BhgvwWQXWAcylKWa0Dz+GRckLCo0QWQ7LqVXF7ghluhfFNF5GeCbH\nDEcZq8RKqq+JGf4f/JDgEnLu0wZacNxDH2AsfABE7HXZglZfvXG1ruEP23FmR9co\nYHkawcHGW2oyvjWAN6OU5eAkfOp4DFCH1xxohVlJWHo/M3Nn+brZuLi/XQ5EfYdi\n209IpjFCCocOmj4A2WF0+ZpG96gW9F/wDPm8z5QAYDBwvWnuzGfn9THCcpD19vO0\n0U+0oJ4x1dA567rjY/6SBViX1d3yPngmwzPtFrmyQQKBgQDAz8Qq66hRXc7hxt0/\nNJkkfOEMjbYe1UcWJv4FXmLPUzS4qtlZv45L7WwB9EGm9nGNn3Ny80DVktdUL5wu\nhniqanjf7wbJTeP7Z9haUN8Xwp4s13Vx6+lhFT8ANQoFnxRHhJ2sEJ253BvF+ygp\nf1jRsC0yxAQ4cqueiFB7zylY1QKBgQC1iJ5jz4Z6jKHhxoDSsC7S/NWRrHb+Lnef\nPM7xZ1iOA3z01G8Nwk6m4bCkod3D/uP0Cz55TPS1nl38CrPB9fTB7C6Pz379HzC5\noYy4BejeYlBjS6EvpzIjyH8ubC8uZhri3e26iF1gTl2DCSx9/E/IrEs0RBubn1C5\ncwD/crUmRQKBgFBSvaA7yEUNVXBNTkJUgS/oLkDykFpL829REyXdakCAo0gDNMTk\nvjz3TbWKsgcCR8/+CzRqDiprH/VcWC4xqvcjn/N6OlOGdWF4o3MMmcPmOcrof27U\nHsdo+HP3pJMu8F3S63SQ/4Q8I/3YYaTX/oJsaIfrjO6PJtvGYfESHmF5AoGBAIHN\nX1wFDqZgGnyC4KhF/CU3TkqsZCVZ+oTtCRgKCoL5MYcqwwG2l2Cybgk6CIVVo49j\n3tcDVNLsm01WJbSh9tIW3DBOcQHzJHcHccQ/zYP+DncBpA6b4bk+ato51v65Wa4w\nfATt7r6nKixBCgRHvpDBycBkls0O/Lyt49/EGI11AoGBAIigP0w8oBz1Fyn5Fe1Z\npzoe6aJZ0LE02kDYer54hr2bjbuG/Jeo6TMTd0UNaMlDTjhZBvgiQCfmwJpNJWdn\no+iRzk0KF8XI/XlHctRwWkbiMgtnGhrl3d4GPbeKueqnKNnONiRfpSBM1/juBE3d\n7vla4qKZWjn6k4tfMtRNN8W4\n-----END PRIVATE KEY-----\n",
  "client_email": "firebase-adminsdk-faqq3@toolbox-97035.iam.gserviceaccount.com",
  "client_id": "110889769903515660277",
  "auth_uri": "https://accounts.google.com/o/oauth2/auth",
  "token_uri": "https://oauth2.googleapis.com/token",
  "auth_provider_x509_cert_url": "https://www.googleapis.com/oauth2/v1/certs",
  "client_x509_cert_url": "https://www.googleapis.com/robot/v1/metadata/x509/firebase-adminsdk-faqq3%40toolbox-97035.iam.gserviceaccount.com",
  "universe_domain": "googleapis.com"
}
